# 	N (number of points)	L2 SPDE	H1 SPDE	L2 ref. reg.	H1 ref. reg.	times
4.000000000000000000e+00	1.305992851735511939e+00	1.634548988805136105e+01	2.021348023243218182e-03	4.745416676245052534e-02	1.256990432739257812e-02
8.000000000000000000e+00	8.954780464002528584e-01	1.296887022201820550e+01	2.021348023243218182e-03	4.745416676245052534e-02	1.130819320678710938e-03
1.600000000000000000e+01	9.500443448509335864e-01	1.398724198370760163e+01	2.021348023243218182e-03	4.745416676245052534e-02	9.040832519531250000e-04
3.200000000000000000e+01	7.259383179182622436e-01	1.161324192057328730e+01	2.021348023243218182e-03	4.745416676245052534e-02	1.667976379394531250e-03
6.400000000000000000e+01	4.138938794904343799e-01	5.275756839568441769e+00	2.021348023243218182e-03	4.745416676245052534e-02	5.342960357666015625e-03
1.280000000000000000e+02	3.517983047712642808e-01	4.820195994911164128e+00	2.021348023243218182e-03	4.745416676245052534e-02	2.037048339843750000e-03
2.560000000000000000e+02	2.957767390336827340e-01	5.016161141401163093e+00	2.021348023243218182e-03	4.745416676245052534e-02	2.151966094970703125e-03
5.120000000000000000e+02	1.639392192667111225e-01	2.229532212473428476e+00	2.021348023243218182e-03	4.745416676245052534e-02	3.126859664916992188e-03
1.024000000000000000e+03	9.818926656929065355e-02	1.617014341223593776e+00	2.021348023243218182e-03	4.745416676245052534e-02	5.396127700805664062e-03
2.048000000000000000e+03	8.120976457955562944e-02	1.204369152034103996e+00	2.021348023243218182e-03	4.745416676245052534e-02	8.774995803833007812e-03
4.096000000000000000e+03	6.378386437909334961e-02	1.107497694194394811e+00	2.021348023243218182e-03	4.745416676245052534e-02	1.472187042236328125e-02
8.192000000000000000e+03	5.253608731966084855e-02	7.873221627831352709e-01	2.021348023243218182e-03	4.745416676245052534e-02	4.065799713134765625e-02
1.638400000000000000e+04	2.919561008966285384e-02	4.321317370901474053e-01	2.021348023243218182e-03	4.745416676245052534e-02	8.278989791870117188e-02
3.276800000000000000e+04	2.203086505775003756e-02	3.703445858862214890e-01	2.021348023243218182e-03	4.745416676245052534e-02	1.823689937591552734e-01
6.553600000000000000e+04	1.779562098012687707e-02	2.356434815465785759e-01	2.021348023243218182e-03	4.745416676245052534e-02	3.125209808349609375e-01
1.310720000000000000e+05	1.180310310893546363e-02	2.093387931172417116e-01	2.021348023243218182e-03	4.745416676245052534e-02	8.056359291076660156e-01
2.621440000000000000e+05	7.960844081693523380e-03	1.294987515311663007e-01	2.021348023243218182e-03	4.745416676245052534e-02	1.650740861892700195e+00
5.242880000000000000e+05	6.291354684956224422e-03	8.544570172040857892e-02	2.021348023243218182e-03	4.745416676245052534e-02	3.816664934158325195e+00
1.048576000000000000e+06	3.804749815423814907e-03	7.381185969154555049e-02	2.021348023243218182e-03	4.745416676245052534e-02	1.061284494400024414e+01
2.097152000000000000e+06	3.483909262694615070e-03	7.311045329332133136e-02	2.021348023243218182e-03	4.745416676245052534e-02	2.692300105094909668e+01
4.194304000000000000e+06	2.746043519603065097e-03	5.752068759525839209e-02	2.021348023243218182e-03	4.745416676245052534e-02	7.302666020393371582e+01
8.388608000000000000e+06	2.276692287482607897e-03	4.875827388929778600e-02	2.021348023243218182e-03	4.745416676245052534e-02	2.193334231376647949e+02
1.677721600000000000e+07	1.963324040659623470e-03	4.719629436464448796e-02	2.021348023243218182e-03	4.745416676245052534e-02	5.759960980415344238e+02
